%YAML 1.1
%TAG !u! tag:unity3d.com,2011:
--- !u!74 &7400000
AnimationClip:
  m_ObjectHideFlags: 0
  m_CorrespondingSourceObject: {fileID: 0}
  m_PrefabInstance: {fileID: 0}
  m_PrefabAsset: {fileID: 0}
  m_Name: Idle
  serializedVersion: 6
  m_Legacy: 0
  m_Compressed: 0
  m_UseHighQualityCurve: 1
  m_RotationCurves: []
  m_CompressedRotationCurves: []
  m_EulerCurves: []
  m_PositionCurves: []
  m_ScaleCurves: []
  m_FloatCurves: []
  m_PPtrCurves:
  - curve:
    - time: 0
      value: {fileID: 21300000, guid: af7ea2d8f687abf44af5cead5e98f426, type: 3}
    - time: 0.083333336
      value: {fileID: 21300000, guid: 3c122a332e1d3114f9f0b61464d4d430, type: 3}
    - time: 0.16666667
      value: {fileID: 21300000, guid: 61c0c385537725f48aad1daada124f1d, type: 3}
    - time: 0.25
      value: {fileID: 21300000, guid: 2e614f5d5213358489bbb220ec1f1967, type: 3}
    - time: 0.33333334
      value: {fileID: 21300000, guid: 2b011f542f39b954892fc3bd4ab06fbb, type: 3}
    - time: 0.41666666
      value: {fileID: 21300000, guid: de837930d1bbd4c4abd3e0bf65543731, type: 3}
    - time: 0.5
      value: {fileID: 21300000, guid: b6f691426b7cdca4d87755f54cbafefe, type: 3}
    - time: 0.5833333
      value: {fileID: 21300000, guid: 7f0afd86fef15704587d309fa828382e, type: 3}
    - time: 0.6666667
      value: {fileID: 21300000, guid: b6169f7585fdf0344ac34136c2d4d230, type: 3}
    - time: 0.75
      value: {fileID: 21300000, guid: 2038901c557a55b4e8db39c894b8c1af, type: 3}
    attribute: m_Sprite
    path: 
    classID: 212
    script: {fileID: 0}
  m_SampleRate: 12
  m_WrapMode: 0
  m_Bounds:
    m_Center: {x: 0, y: 0, z: 0}
    m_Extent: {x: 0, y: 0, z: 0}
  m_ClipBindingConstant:
    genericBindings:
    - serializedVersion: 2
      path: 0
      attribute: 0
      script: {fileID: 0}
      typeID: 212
      customType: 23
      isPPtrCurve: 1
    pptrCurveMapping:
    - {fileID: 21300000, guid: af7ea2d8f687abf44af5cead5e98f426, type: 3}
    - {fileID: 21300000, guid: 3c122a332e1d3114f9f0b61464d4d430, type: 3}
    - {fileID: 21300000, guid: 61c0c385537725f48aad1daada124f1d, type: 3}
    - {fileID: 21300000, guid: 2e614f5d5213358489bbb220ec1f1967, type: 3}
    - {fileID: 21300000, guid: 2b011f542f39b954892fc3bd4ab06fbb, type: 3}
    - {fileID: 21300000, guid: de837930d1bbd4c4abd3e0bf65543731, type: 3}
    - {fileID: 21300000, guid: b6f691426b7cdca4d87755f54cbafefe, type: 3}
    - {fileID: 21300000, guid: 7f0afd86fef15704587d309fa828382e, type: 3}
    - {fileID: 21300000, guid: b6169f7585fdf0344ac34136c2d4d230, type: 3}
    - {fileID: 21300000, guid: 2038901c557a55b4e8db39c894b8c1af, type: 3}
  m_AnimationClipSettings:
    serializedVersion: 2
    m_AdditiveReferencePoseClip: {fileID: 0}
    m_AdditiveReferencePoseTime: 0
    m_StartTime: 0
    m_StopTime: 0.8333333
    m_OrientationOffsetY: 0
    m_Level: 0
    m_CycleOffset: 0
    m_HasAdditiveReferencePose: 0
    m_LoopTime: 1
    m_LoopBlend: 0
    m_LoopBlendOrientation: 0
    m_LoopBlendPositionY: 0
    m_LoopBlendPositionXZ: 0
    m_KeepOriginalOrientation: 0
    m_KeepOriginalPositionY: 1
    m_KeepOriginalPositionXZ: 0
    m_HeightFromFeet: 0
    m_Mirror: 0
  m_EditorCurves: []
  m_EulerEditorCurves: []
  m_HasGenericRootTransform: 0
  m_HasMotionFloatCurves: 0
  m_Events: []
