%YAML 1.1
%TAG !u! tag:unity3d.com,2011:
--- !u!221 &22100000
AnimatorOverrideController:
  m_ObjectHideFlags: 0
  m_CorrespondingSourceObject: {fileID: 0}
  m_PrefabInstance: {fileID: 0}
  m_PrefabAsset: {fileID: 0}
  m_Name: Turtle
  m_Controller: {fileID: 9100000, guid: f0ee12a0f3388a1488e21cbf2dcad478, type: 2}
  m_Clips:
  - m_OriginalClip: {fileID: 7400000, guid: 9be9b47742f9bde41b1c7c9b89a778e5, type: 2}
    m_OverrideClip: {fileID: 7400000, guid: 2d7a20bba137aad4988e830682810060, type: 2}
  - m_OriginalClip: {fileID: 7400000, guid: eb0a5ebe8fd70b741aa05a0917340bb3, type: 2}
    m_OverrideClip: {fileID: 7400000, guid: 2d7a20bba137aad4988e830682810060, type: 2}
  - m_OriginalClip: {fileID: 7400000, guid: 3265c1208e6913c4287307d71d794e81, type: 2}
    m_OverrideClip: {fileID: 7400000, guid: 2d7a20bba137aad4988e830682810060, type: 2}
  - m_OriginalClip: {fileID: 7400000, guid: fc59307282717a148b20fdcb088e5229, type: 2}
    m_OverrideClip: {fileID: 7400000, guid: 47f466099b4e0864f9a25dad59ec59c6, type: 2}
  - m_OriginalClip: {fileID: 7400000, guid: 33f39a7da805d424fb80d2c5cfb6bd92, type: 2}
    m_OverrideClip: {fileID: 7400000, guid: 47f466099b4e0864f9a25dad59ec59c6, type: 2}
  - m_OriginalClip: {fileID: 7400000, guid: 324c553807855e846affbcd0d5adff2b, type: 2}
    m_OverrideClip: {fileID: 7400000, guid: 10861d222ca01af438919b4c5574fb80, type: 2}
