%YAML 1.1
%TAG !u! tag:unity3d.com,2011:
--- !u!74 &7400000
AnimationClip:
  m_ObjectHideFlags: 0
  m_CorrespondingSourceObject: {fileID: 0}
  m_PrefabInstance: {fileID: 0}
  m_PrefabAsset: {fileID: 0}
  m_Name: Death
  serializedVersion: 6
  m_Legacy: 0
  m_Compressed: 0
  m_UseHighQualityCurve: 1
  m_RotationCurves: []
  m_CompressedRotationCurves: []
  m_EulerCurves: []
  m_PositionCurves: []
  m_ScaleCurves: []
  m_FloatCurves: []
  m_PPtrCurves:
  - curve:
    - time: 0
      value: {fileID: 21300000, guid: 0bdac2d2bf5e5554287fa7b88e97dca2, type: 3}
    - time: 0.083333336
      value: {fileID: 21300000, guid: 9236b1056c30fd6449cc29a4bf6edc1e, type: 3}
    - time: 0.16666667
      value: {fileID: 21300000, guid: 19df0a4b04483044fbacf59ca3618efd, type: 3}
    - time: 0.25
      value: {fileID: 21300000, guid: dae21b62bd8251547a5792f41392d15f, type: 3}
    - time: 0.33333334
      value: {fileID: 21300000, guid: 9e929685b749fdd43b33981f8bd95fd4, type: 3}
    - time: 0.41666666
      value: {fileID: 21300000, guid: bb5b5119a276ba34d9e469c55a1a84ce, type: 3}
    - time: 0.5
      value: {fileID: 21300000, guid: 53bbecfe2f69aaf48bdc5c1963b5a15c, type: 3}
    - time: 0.5833333
      value: {fileID: 21300000, guid: 9bb8f76473d653341a88cfcba3c5d7e6, type: 3}
    - time: 0.6666667
      value: {fileID: 21300000, guid: f8a5602e36da48e43919a28c41826ae1, type: 3}
    - time: 0.75
      value: {fileID: 21300000, guid: 0a11f7fb9f3b2804fbd9490777a1466e, type: 3}
    attribute: m_Sprite
    path: 
    classID: 212
    script: {fileID: 0}
  m_SampleRate: 12
  m_WrapMode: 0
  m_Bounds:
    m_Center: {x: 0, y: 0, z: 0}
    m_Extent: {x: 0, y: 0, z: 0}
  m_ClipBindingConstant:
    genericBindings:
    - serializedVersion: 2
      path: 0
      attribute: 0
      script: {fileID: 0}
      typeID: 212
      customType: 23
      isPPtrCurve: 1
    pptrCurveMapping:
    - {fileID: 21300000, guid: 0bdac2d2bf5e5554287fa7b88e97dca2, type: 3}
    - {fileID: 21300000, guid: 9236b1056c30fd6449cc29a4bf6edc1e, type: 3}
    - {fileID: 21300000, guid: 19df0a4b04483044fbacf59ca3618efd, type: 3}
    - {fileID: 21300000, guid: dae21b62bd8251547a5792f41392d15f, type: 3}
    - {fileID: 21300000, guid: 9e929685b749fdd43b33981f8bd95fd4, type: 3}
    - {fileID: 21300000, guid: bb5b5119a276ba34d9e469c55a1a84ce, type: 3}
    - {fileID: 21300000, guid: 53bbecfe2f69aaf48bdc5c1963b5a15c, type: 3}
    - {fileID: 21300000, guid: 9bb8f76473d653341a88cfcba3c5d7e6, type: 3}
    - {fileID: 21300000, guid: f8a5602e36da48e43919a28c41826ae1, type: 3}
    - {fileID: 21300000, guid: 0a11f7fb9f3b2804fbd9490777a1466e, type: 3}
  m_AnimationClipSettings:
    serializedVersion: 2
    m_AdditiveReferencePoseClip: {fileID: 0}
    m_AdditiveReferencePoseTime: 0
    m_StartTime: 0
    m_StopTime: 0.8333333
    m_OrientationOffsetY: 0
    m_Level: 0
    m_CycleOffset: 0
    m_HasAdditiveReferencePose: 0
    m_LoopTime: 0
    m_LoopBlend: 0
    m_LoopBlendOrientation: 0
    m_LoopBlendPositionY: 0
    m_LoopBlendPositionXZ: 0
    m_KeepOriginalOrientation: 0
    m_KeepOriginalPositionY: 1
    m_KeepOriginalPositionXZ: 0
    m_HeightFromFeet: 0
    m_Mirror: 0
  m_EditorCurves: []
  m_EulerEditorCurves: []
  m_HasGenericRootTransform: 0
  m_HasMotionFloatCurves: 0
  m_Events: []
